-a="C:\Users\aarnaizl\Documents\unity projects\basics_tutorial\Library\PlayerScriptAssemblies\Assembly-CSharp.dll"
-a="C:\Users\aarnaizl\Documents\unity projects\basics_tutorial\Library\PlayerScriptAssemblies\Microsoft.MixedReality.Toolkit.Services.InputSystem.dll"
-a="C:\Users\aarnaizl\Documents\unity projects\basics_tutorial\Library\PlayerScriptAssemblies\Microsoft.MixedReality.Toolkit.Providers.XRSDK.WindowsMixedReality.dll"
-a="C:\Users\aarnaizl\Documents\unity projects\basics_tutorial\Library\PlayerScriptAssemblies\Microsoft.MixedReality.Toolkit.Gltf.dll"
-a="C:\Users\aarnaizl\Documents\unity projects\basics_tutorial\Library\PlayerScriptAssemblies\Microsoft.MixedReality.Toolkit.Services.InputAnimation.dll"
-a="C:\Users\aarnaizl\Documents\unity projects\basics_tutorial\Library\PlayerScriptAssemblies\Microsoft.MixedReality.Toolkit.Services.TeleportSystem.dll"
-a="C:\Users\aarnaizl\Documents\unity projects\basics_tutorial\Library\PlayerScriptAssemblies\Microsoft.MixedReality.Toolkit.dll"
-a="C:\Users\aarnaizl\Documents\unity projects\basics_tutorial\Library\PlayerScriptAssemblies\Unity.InputSystem.dll"
-a="C:\Users\aarnaizl\Documents\unity projects\basics_tutorial\Library\PlayerScriptAssemblies\Microsoft.MixedReality.Toolkit.Services.SceneSystem.dll"
-a="C:\Users\aarnaizl\Documents\unity projects\basics_tutorial\Library\PlayerScriptAssemblies\UnityEngine.SpatialTracking.dll"
-a="C:\Users\aarnaizl\Documents\unity projects\basics_tutorial\Library\PlayerScriptAssemblies\UnityEngine.UI.dll"
-a="C:\Users\aarnaizl\Documents\unity projects\basics_tutorial\Library\PlayerScriptAssemblies\Microsoft.MixedReality.Toolkit.Services.InputSimulation.dll"
-a="C:\Users\aarnaizl\Documents\unity projects\basics_tutorial\Library\PlayerScriptAssemblies\Microsoft.MixedReality.Toolkit.Providers.WindowsSceneUnderstanding.dll"
-a="C:\Users\aarnaizl\Documents\unity projects\basics_tutorial\Library\PlayerScriptAssemblies\Unity.XR.Management.dll"
-a="C:\Users\aarnaizl\Documents\unity projects\basics_tutorial\Library\PlayerScriptAssemblies\Unity.XR.OpenXR.Features.RuntimeDebugger.dll"
-a="C:\Users\aarnaizl\Documents\unity projects\basics_tutorial\Library\PlayerScriptAssemblies\Unity.XR.ARSubsystems.dll"
-a="C:\Users\aarnaizl\Documents\unity projects\basics_tutorial\Library\PlayerScriptAssemblies\Microsoft.MixedReality.Toolkit.SDK.Experimental.Interactive.dll"
-a="C:\Users\aarnaizl\Documents\unity projects\basics_tutorial\Library\PlayerScriptAssemblies\Microsoft.MixedReality.Toolkit.Providers.WindowsMixedReality.Shared.dll"
-a="C:\Users\aarnaizl\Documents\unity projects\basics_tutorial\Library\PlayerScriptAssemblies\Microsoft.MixedReality.Toolkit.SDK.dll"
-a="C:\Users\aarnaizl\Documents\unity projects\basics_tutorial\Library\PlayerScriptAssemblies\Microsoft.MixedReality.Toolkit.Services.SpatialAwarenessSystem.dll"
-a="C:\Users\aarnaizl\Documents\unity projects\basics_tutorial\Library\PlayerScriptAssemblies\Microsoft.MixedReality.Toolkit.Providers.WindowsVoiceInput.dll"
-a="C:\Users\aarnaizl\Documents\unity projects\basics_tutorial\Library\PlayerScriptAssemblies\Microsoft.MixedReality.Toolkit.Services.CameraSystem.dll"
-a="C:\Users\aarnaizl\Documents\unity projects\basics_tutorial\Library\PlayerScriptAssemblies\UnityEngine.TestRunner.dll"
-a="C:\Users\aarnaizl\Documents\unity projects\basics_tutorial\Library\PlayerScriptAssemblies\Unity.Timeline.dll"
-a="C:\Users\aarnaizl\Documents\unity projects\basics_tutorial\Library\PlayerScriptAssemblies\Unity.TextMeshPro.dll"
-a="C:\Users\aarnaizl\Documents\unity projects\basics_tutorial\Library\PlayerScriptAssemblies\Unity.XR.OpenXR.Features.MockRuntime.dll"
-a="C:\Users\aarnaizl\Documents\unity projects\basics_tutorial\Library\PlayerScriptAssemblies\Microsoft.MixedReality.Toolkit.Providers.OpenXR.dll"
-a="C:\Users\aarnaizl\Documents\unity projects\basics_tutorial\Library\PlayerScriptAssemblies\Unity.Subsystem.Registration.dll"
-a="C:\Users\aarnaizl\Documents\unity projects\basics_tutorial\Library\PlayerScriptAssemblies\Unity.XR.OpenXR.Features.OculusQuestSupport.dll"
-a="C:\Users\aarnaizl\Documents\unity projects\basics_tutorial\Library\PlayerScriptAssemblies\Microsoft.MixedReality.OpenXR.dll"
-a="C:\Users\aarnaizl\Documents\unity projects\basics_tutorial\Library\PlayerScriptAssemblies\Microsoft.MixedReality.Toolkit.Providers.XRSDK.dll"
-a="C:\Users\aarnaizl\Documents\unity projects\basics_tutorial\Library\PlayerScriptAssemblies\UnityEngine.XR.LegacyInputHelpers.dll"
-a="C:\Users\aarnaizl\Documents\unity projects\basics_tutorial\Library\PlayerScriptAssemblies\Unity.XR.CoreUtils.dll"
-a="C:\Users\aarnaizl\Documents\unity projects\basics_tutorial\Library\PlayerScriptAssemblies\Microsoft.MixedReality.Toolkit.Services.DiagnosticsSystem.dll"
-a="C:\Users\aarnaizl\Documents\unity projects\basics_tutorial\Library\PlayerScriptAssemblies\Unity.XR.OpenXR.dll"
-a="C:\Users\aarnaizl\Documents\unity projects\basics_tutorial\Library\PlayerScriptAssemblies\Microsoft.MixedReality.Toolkit.Async.dll"
-a="C:\Users\aarnaizl\Documents\unity projects\basics_tutorial\Library\PlayerScriptAssemblies\Unity.XR.OpenXR.Features.ConformanceAutomation.dll"
-a="C:\Users\aarnaizl\Documents\unity projects\basics_tutorial\Library\PlayerScriptAssemblies\Unity.XR.ARFoundation.dll"
-a="C:\Users\aarnaizl\Documents\unity projects\basics_tutorial\Assets\RosSharp\Plugins\Microsoft\System.Buffers.dll"
-a="C:\Users\aarnaizl\Documents\unity projects\basics_tutorial\Assets\Plugins\Newtonsoft.Json AOT\Newtonsoft.Json.dll"
-a="C:\Users\aarnaizl\Documents\unity projects\basics_tutorial\Assets\RosSharp\Plugins\RosBridgeClientUWP.dll"
-a="C:\Users\aarnaizl\Documents\unity projects\basics_tutorial\Assets\RosSharp\Plugins\MessageGeneration.dll"
-a="C:\Users\aarnaizl\Documents\unity projects\basics_tutorial\Assets\RosSharp\Plugins\Microsoft\System.Threading.Tasks.Extensions.dll"
-a="C:\Users\aarnaizl\Documents\unity projects\basics_tutorial\Assets\Plugins\Newtonsoft.Json Portable\Newtonsoft.Json.dll"
-a="C:\Users\aarnaizl\Documents\unity projects\basics_tutorial\Assets\RosSharp\Plugins\Microsoft\System.Text.Json.dll"
-a="C:\Users\aarnaizl\Documents\unity projects\basics_tutorial\Assets\Plugins\Newtonsoft.Json Editor\Newtonsoft.Json.dll"
-a="C:\Users\aarnaizl\Documents\unity projects\basics_tutorial\Assets\RosSharp\Plugins\Microsoft\System.Text.Encodings.Web.dll"
-a="C:\Users\aarnaizl\Documents\unity projects\basics_tutorial\Library\PackageCache\com.unity.ext.nunit@1.0.6\net35\unity-custom\nunit.framework.dll"
-a="C:\Users\aarnaizl\Documents\unity projects\basics_tutorial\Assets\RosSharp\Plugins\External\websocket-sharp.dll"
-a="C:\Users\aarnaizl\Documents\unity projects\basics_tutorial\Assets\RosSharp\Plugins\RosBridgeClient.dll"
-a="C:\Users\aarnaizl\Documents\unity projects\basics_tutorial\Assets\RosSharp\Plugins\Microsoft\System.Memory.dll"
-a="C:\Users\aarnaizl\Documents\unity projects\basics_tutorial\Assets\RosSharp\Plugins\Microsoft\Microsoft.Bcl.AsyncInterfaces.dll"
-a="C:\Users\aarnaizl\Documents\unity projects\basics_tutorial\Assets\RosSharp\Plugins\Microsoft\System.Runtime.CompilerServices.Unsafe.dll"
-a="C:\Users\aarnaizl\Documents\unity projects\basics_tutorial\Assets\RosSharp\Plugins\Urdf.dll"
-a="C:\Users\aarnaizl\Documents\unity projects\basics_tutorial\Assets\RosSharp\Plugins\Microsoft\System.Threading.Channels.dll"
-a="C:\Users\aarnaizl\Documents\unity projects\basics_tutorial\Assets\RosSharp\Plugins\External\Newtonsoft.Json.Bson.dll"
-s="C:\Program Files\Unity\Hub\Editor\2020.3.42f1\Editor\Data\Managed\UnityEngine"
-s="C:\Users\aarnaizl\Documents\unity projects\basics_tutorial\Library\PlayerScriptAssemblies"
-s="C:\Users\aarnaizl\Documents\unity projects\basics_tutorial\Assets\RosSharp\Plugins\Microsoft"
-s="C:\Users\aarnaizl\Documents\unity projects\basics_tutorial\Assets\Plugins\Newtonsoft.Json AOT"
-s="C:\Users\aarnaizl\Documents\unity projects\basics_tutorial\Assets\RosSharp\Plugins"
-s="C:\Users\aarnaizl\Documents\unity projects\basics_tutorial\Assets\Plugins\Newtonsoft.Json Portable"
-s="C:\Users\aarnaizl\Documents\unity projects\basics_tutorial\Assets\Plugins\Newtonsoft.Json Editor"
-s="C:\Users\aarnaizl\Documents\unity projects\basics_tutorial\Library\PackageCache\com.unity.ext.nunit@1.0.6\net35\unity-custom"
-s="C:\Users\aarnaizl\Documents\unity projects\basics_tutorial\Assets\RosSharp\Plugins\External"
-s="C:\Program Files\Unity\Hub\Editor\2020.3.42f1\Editor\Data\Managed\UnityEngine"
-s="C:\Program Files\Unity\Hub\Editor\2020.3.42f1\Editor\Data\NetStandard\ref\2.0.0"
-s="C:\Program Files\Unity\Hub\Editor\2020.3.42f1\Editor\Data\NetStandard\compat\2.0.0\shims\netstandard"
-s="C:\Program Files\Unity\Hub\Editor\2020.3.42f1\Editor\Data\NetStandard\Extensions\2.0.0"
-s="C:\Program Files\Unity\Hub\Editor\2020.3.42f1\Editor\Data\NetStandard\compat\2.0.0\shims\netfx"
-o="C:\Users\aarnaizl\Documents\unity projects\basics_tutorial\Library\BuildPlayerData\Player"
-rn="RuntimeInitializeOnLoads.json"
-tn="TypeDb-All.json"
