{
"instructions_readme": "1) Open Chrome, 2) go to chrome://tracing, 3) click Load, 4) navigate to this file.",
"traceEvents":[
{ "cat":"", "pid":1, "tid":0, "ts":0, "ph":"M", "name":"process_name", "args": { "name":"tundra" } }
,{ "pid":1, "tid":0, "ts":5174540005, "dur":750, "ph":"X", "name": "DriverCheckDagSignatures",  "args": { "durationMS":1, "detail":"" }}
,{ "pid":1, "tid":0, "ts":5174540755, "dur":13526, "ph":"X", "name": "DriverInitData",  "args": { "durationMS":14, "detail":"" }}
,{ "pid":1, "tid":0, "ts":5174554393, "dur":6, "ph":"X", "name": "Tundra",  "args": { "durationMS":0, "detail":"RemoveStaleOutputs" }}
,{ "pid":1, "tid":0, "ts":5174554408, "dur":1, "ph":"X", "name": "Tundra",  "args": { "durationMS":0, "detail":"PrepareNodes" }}
,{ "pid":1, "tid":0, "ts":5174554409, "dur":850, "ph":"X", "name": "Tundra",  "args": { "durationMS":1, "detail":"BuildQueueInit" }}
,{ "pid":1, "tid":0, "ts":5174816200, "dur":15758, "ph":"X", "name": "JoinBuildThread",  "args": { "durationMS":16, "detail":"" }}
,{ "pid":1, "tid":0, "ts":5174832063, "dur":4, "ph":"X", "name": "JoinBuildThread",  "args": { "durationMS":0, "detail":"" }}
,{ "pid":1, "tid":0, "ts":5174832072, "dur":2, "ph":"X", "name": "JoinBuildThread",  "args": { "durationMS":0, "detail":"" }}
,{ "pid":1, "tid":0, "ts":5174832078, "dur":2, "ph":"X", "name": "JoinBuildThread",  "args": { "durationMS":0, "detail":"" }}
,{ "pid":1, "tid":0, "ts":5174832084, "dur":2, "ph":"X", "name": "JoinBuildThread",  "args": { "durationMS":0, "detail":"" }}
,{ "pid":1, "tid":0, "ts":5174832092, "dur":2, "ph":"X", "name": "JoinBuildThread",  "args": { "durationMS":0, "detail":"" }}
,{ "pid":1, "tid":0, "ts":5174832101, "dur":2, "ph":"X", "name": "JoinBuildThread",  "args": { "durationMS":0, "detail":"" }}
,{ "pid":1, "tid":0, "ts":5174832107, "dur":2, "ph":"X", "name": "JoinBuildThread",  "args": { "durationMS":0, "detail":"" }}
,{ "pid":1, "tid":0, "ts":5174832113, "dur":1, "ph":"X", "name": "JoinBuildThread",  "args": { "durationMS":0, "detail":"" }}
,{ "pid":1, "tid":0, "ts":5174832119, "dur":2, "ph":"X", "name": "JoinBuildThread",  "args": { "durationMS":0, "detail":"" }}
,{ "pid":1, "tid":0, "ts":5174832125, "dur":2, "ph":"X", "name": "JoinBuildThread",  "args": { "durationMS":0, "detail":"" }}
,{ "pid":1, "tid":0, "ts":5174832131, "dur":1, "ph":"X", "name": "JoinBuildThread",  "args": { "durationMS":0, "detail":"" }}
,{ "pid":1, "tid":0, "ts":5174832137, "dur":1, "ph":"X", "name": "JoinBuildThread",  "args": { "durationMS":0, "detail":"" }}
,{ "pid":1, "tid":0, "ts":5174832143, "dur":2, "ph":"X", "name": "JoinBuildThread",  "args": { "durationMS":0, "detail":"" }}
,{ "pid":1, "tid":0, "ts":5174832149, "dur":1, "ph":"X", "name": "JoinBuildThread",  "args": { "durationMS":0, "detail":"" }}
,{ "pid":1, "tid":0, "ts":5174832155, "dur":1, "ph":"X", "name": "JoinBuildThread",  "args": { "durationMS":0, "detail":"" }}
,{ "pid":1, "tid":0, "ts":5174832162, "dur":0, "ph":"X", "name": "SharedResourceDestroy",  "args": { "durationMS":0, "detail":"" }}
,{ "pid":1, "tid":0, "ts":5174832174, "dur":10527, "ph":"X", "name": "Tundra",  "args": { "durationMS":11, "detail":"Write AllBuiltNodes" }}
,{ "pid":1, "tid":1, "ts":5174555196, "dur":90, "ph":"X", "name": "WaitingForWork", "cname":"thread_state_sleeping",  "args": { "durationMS":0, "detail":"" }}
,{ "pid":1, "tid":1, "ts":5174555306, "dur":260790, "ph":"X", "name": "CheckInputSignature",  "args": { "durationMS":261, "detail":"Il2Cpp C:/Users/aarnaizl/Documents/unity projects/basics_tutorial/Library/Il2cppBuildCache/UWP/x64/il2cppOutput/Data/Metadata/global-metadata.dat" }}
,{ "pid":1, "tid":1, "ts":5174816173, "dur":1, "ph":"X", "name": "CheckInputSignature",  "args": { "durationMS":0, "detail":"all_tundra_nodes" }}
,{ "pid":1, "tid":1, "ts":5174816176, "dur":36, "ph":"X", "name": "WaitingForWork", "cname":"thread_state_sleeping",  "args": { "durationMS":0, "detail":"" }}
,{ "pid":1, "tid":1, "ts":5174816212, "dur":15506, "ph":"X", "name": "Exiting",  "args": { "durationMS":16, "detail":"BuildLoop" }}
,{ "pid":1, "tid":2, "ts":5174555402, "dur":260800, "ph":"X", "name": "WaitingForWork", "cname":"thread_state_sleeping",  "args": { "durationMS":261, "detail":"" }}
,{ "pid":1, "tid":2, "ts":5174816202, "dur":15545, "ph":"X", "name": "Exiting",  "args": { "durationMS":16, "detail":"BuildLoop" }}
,{ "pid":1, "tid":3, "ts":5174555956, "dur":260276, "ph":"X", "name": "WaitingForWork", "cname":"thread_state_sleeping",  "args": { "durationMS":260, "detail":"" }}
,{ "pid":1, "tid":3, "ts":5174816233, "dur":15501, "ph":"X", "name": "Exiting",  "args": { "durationMS":16, "detail":"BuildLoop" }}
,{ "pid":1, "tid":4, "ts":5174555469, "dur":260730, "ph":"X", "name": "WaitingForWork", "cname":"thread_state_sleeping",  "args": { "durationMS":261, "detail":"" }}
,{ "pid":1, "tid":4, "ts":5174816201, "dur":15525, "ph":"X", "name": "Exiting",  "args": { "durationMS":16, "detail":"BuildLoop" }}
,{ "pid":1, "tid":5, "ts":5174555535, "dur":260697, "ph":"X", "name": "WaitingForWork", "cname":"thread_state_sleeping",  "args": { "durationMS":261, "detail":"" }}
,{ "pid":1, "tid":5, "ts":5174816232, "dur":15515, "ph":"X", "name": "Exiting",  "args": { "durationMS":16, "detail":"BuildLoop" }}
,{ "pid":1, "tid":6, "ts":5174555579, "dur":260622, "ph":"X", "name": "WaitingForWork", "cname":"thread_state_sleeping",  "args": { "durationMS":261, "detail":"" }}
,{ "pid":1, "tid":6, "ts":5174816201, "dur":15526, "ph":"X", "name": "Exiting",  "args": { "durationMS":16, "detail":"BuildLoop" }}
,{ "pid":1, "tid":7, "ts":5174555622, "dur":260581, "ph":"X", "name": "WaitingForWork", "cname":"thread_state_sleeping",  "args": { "durationMS":261, "detail":"" }}
,{ "pid":1, "tid":7, "ts":5174816204, "dur":15532, "ph":"X", "name": "Exiting",  "args": { "durationMS":16, "detail":"BuildLoop" }}
,{ "pid":1, "tid":8, "ts":5174555652, "dur":260577, "ph":"X", "name": "WaitingForWork", "cname":"thread_state_sleeping",  "args": { "durationMS":261, "detail":"" }}
,{ "pid":1, "tid":8, "ts":5174816230, "dur":15471, "ph":"X", "name": "Exiting",  "args": { "durationMS":15, "detail":"BuildLoop" }}
,{ "pid":1, "tid":9, "ts":5174555698, "dur":260511, "ph":"X", "name": "WaitingForWork", "cname":"thread_state_sleeping",  "args": { "durationMS":261, "detail":"" }}
,{ "pid":1, "tid":9, "ts":5174816210, "dur":15518, "ph":"X", "name": "Exiting",  "args": { "durationMS":16, "detail":"BuildLoop" }}
,{ "pid":1, "tid":10, "ts":5174555719, "dur":260480, "ph":"X", "name": "WaitingForWork", "cname":"thread_state_sleeping",  "args": { "durationMS":260, "detail":"" }}
,{ "pid":1, "tid":10, "ts":5174816199, "dur":15537, "ph":"X", "name": "Exiting",  "args": { "durationMS":16, "detail":"BuildLoop" }}
,{ "pid":1, "tid":11, "ts":5174555768, "dur":260463, "ph":"X", "name": "WaitingForWork", "cname":"thread_state_sleeping",  "args": { "durationMS":260, "detail":"" }}
,{ "pid":1, "tid":11, "ts":5174816231, "dur":15470, "ph":"X", "name": "Exiting",  "args": { "durationMS":15, "detail":"BuildLoop" }}
,{ "pid":1, "tid":12, "ts":5174555789, "dur":260417, "ph":"X", "name": "WaitingForWork", "cname":"thread_state_sleeping",  "args": { "durationMS":260, "detail":"" }}
,{ "pid":1, "tid":12, "ts":5174816206, "dur":15511, "ph":"X", "name": "Exiting",  "args": { "durationMS":16, "detail":"BuildLoop" }}
,{ "pid":1, "tid":13, "ts":5174555842, "dur":260361, "ph":"X", "name": "WaitingForWork", "cname":"thread_state_sleeping",  "args": { "durationMS":260, "detail":"" }}
,{ "pid":1, "tid":13, "ts":5174816204, "dur":15498, "ph":"X", "name": "Exiting",  "args": { "durationMS":15, "detail":"BuildLoop" }}
,{ "pid":1, "tid":14, "ts":5174555891, "dur":260341, "ph":"X", "name": "WaitingForWork", "cname":"thread_state_sleeping",  "args": { "durationMS":260, "detail":"" }}
,{ "pid":1, "tid":14, "ts":5174816232, "dur":15469, "ph":"X", "name": "Exiting",  "args": { "durationMS":15, "detail":"BuildLoop" }}
,{ "pid":1, "tid":15, "ts":5174555313, "dur":260889, "ph":"X", "name": "WaitingForWork", "cname":"thread_state_sleeping",  "args": { "durationMS":261, "detail":"" }}
,{ "pid":1, "tid":15, "ts":5174816202, "dur":15500, "ph":"X", "name": "Exiting",  "args": { "durationMS":16, "detail":"BuildLoop" }}
,{ "pid":1, "tid":16, "ts":5174556025, "dur":260205, "ph":"X", "name": "WaitingForWork", "cname":"thread_state_sleeping",  "args": { "durationMS":260, "detail":"" }}
,{ "pid":1, "tid":16, "ts":5174816230, "dur":15518, "ph":"X", "name": "Exiting",  "args": { "durationMS":16, "detail":"BuildLoop" }}

]
}
